module task-finisher

go 1.20

require (
	github.com/gofiber/fiber/v2 v2.46.0
	github.com/pkg/errors v0.9.1
	go.uber.org/zap v1.24.0
	gorm.io/driver/postgres v1.5.2
	gorm.io/gorm v1.25.1
)

require (
	github.com/andybalholm/brotli v1.0.5 // indirect
	github.com/google/uuid v1.3.0 // indirect
	github.com/jackc/pgpassfile v1.0.0 // indirect
	github.com/jackc/pgservicefile v0.0.0-20221227161230-091c0ba34f0a // indirect
	github.com/jackc/pgx/v5 v5.4.1 // indirect
	github.com/jinzhu/inflection v1.0.0 // indirect
	github.com/jinzhu/now v1.1.5 // indirect
	github.com/klauspost/compress v1.16.5 // indirect
	github.com/mattn/go-colorable v0.1.13 // indirect
	github.com/mattn/go-isatty v0.0.19 // indirect
	github.com/mattn/go-runewidth v0.0.14 // indirect
	github.com/philhofer/fwd v1.1.2 // indirect
	github.com/rivo/uniseg v0.4.4 // indirect
	github.com/savsgio/dictpool v0.0.0-20221023140959-7bf2e61cea94 // indirect
	github.com/savsgio/gotils v0.0.0-20230208104028-c358bd845dee // indirect
	github.com/tinylib/msgp v1.1.8 // indirect
	github.com/valyala/bytebufferpool v1.0.0 // indirect
	github.com/valyala/fasthttp v1.47.0 // indirect
	github.com/valyala/tcplisten v1.0.0 // indirect
	go.uber.org/atomic v1.11.0 // indirect
	go.uber.org/multierr v1.11.0 // indirect
	golang.org/x/crypto v0.10.0 // indirect
	golang.org/x/sys v0.9.0 // indirect
	golang.org/x/text v0.10.0 // indirect
)
